{
    "crate2nix": {
        "branch": "master",
        "description": "nix build file generator for rust crates",
        "homepage": "",
        "owner": "kolloch",
        "repo": "crate2nix",
        "rev": "5dfb0c155ca639591b82106b6455f24fc0a2f484",
        "sha256": "0nkvpk3m8wgnwd94520jnsxjq14q255s67rl885i75rm293j2yha",
        "type": "tarball",
        "url": "https://github.com/kolloch/crate2nix/archive/5dfb0c155ca639591b82106b6455f24fc0a2f484.tar.gz",
        "url_template": "https://github.com/<owner>/<repo>/archive/<rev>.tar.gz"
    },
    "nixpkgsMoz": {
        "branch": "master",
        "description": "mozilla related nixpkgs (extends nixos/nixpkgs repo)",
        "homepage": null,
        "owner": "mozilla",
        "repo": "nixpkgs-mozilla",
        "rev": "18cd4300e9bf61c7b8b372f07af827f6ddc835bb",
        "sha256": "1s0d1l5y7a3kygjbibssjnj7fcc87qaa5s9k4kda0j13j9h4zwgr",
        "type": "tarball",
        "url": "https://github.com/mozilla/nixpkgs-mozilla/archive/18cd4300e9bf61c7b8b372f07af827f6ddc835bb.tar.gz",
        "url_template": "https://github.com/<owner>/<repo>/archive/<rev>.tar.gz"
    }
}
